^C:\USERS\USER\SOURCE\REPOS\CONSOLEAPPLICATION1\CONSOLEAPPLICATION1\PCH.CPP
C:\USERS\USER\SOURCE\REPOS\CONSOLEAPPLICATION1\CONSOLEAPPLICATION1\DEBUG\CONSOLEAPPLICATION1.PCH
C:\USERS\USER\SOURCE\REPOS\CONSOLEAPPLICATION1\CONSOLEAPPLICATION1\DEBUG\VC141.PDB
C:\USERS\USER\SOURCE\REPOS\CONSOLEAPPLICATION1\CONSOLEAPPLICATION1\DEBUG\VC141.IDB
C:\USERS\USER\SOURCE\REPOS\CONSOLEAPPLICATION1\CONSOLEAPPLICATION1\DEBUG\PCH.OBJ
^C:\USERS\USER\SOURCE\REPOS\CONSOLEAPPLICATION1\CONSOLEAPPLICATION1\MAIN.CPP
C:\USERS\USER\SOURCE\REPOS\CONSOLEAPPLICATION1\CONSOLEAPPLICATION1\DEBUG\VC141.PDB
C:\USERS\USER\SOURCE\REPOS\CONSOLEAPPLICATION1\CONSOLEAPPLICATION1\DEBUG\VC141.IDB
C:\USERS\USER\SOURCE\REPOS\CONSOLEAPPLICATION1\CONSOLEAPPLICATION1\DEBUG\MAIN.OBJ
